^C:\USERS\DANIEL\SOURCE\REPOS\ENIGMA2\ENIGMA2\DEBUG\ENIGMA2.OBJ|C:\USERS\DANIEL\SOURCE\REPOS\ENIGMA2\ENIGMA2\DEBUG\PCH.OBJ
C:\USERS\DANIEL\SOURCE\REPOS\ENIGMA2\DEBUG\ENIGMA2.EXE
C:\USERS\DANIEL\SOURCE\REPOS\ENIGMA2\DEBUG\ENIGMA2.ILK
C:\USERS\DANIEL\SOURCE\REPOS\ENIGMA2\DEBUG\ENIGMA2.PDB
